<?xml version='1.0' encoding='utf-8'?>
<!DOCTYPE svg PUBLIC '-//W3C//DTD SVG 1.1//EN' 'http://www.w3.org/Graphics/SVG/1.1/DTD/svg11.dtd'>
<svg version="1.1" xmlns="http://www.w3.org/2000/svg" viewBox="0 0 512 512" xmlns:xlink="http://www.w3.org/1999/xlink" enable-background="new 0 0 512 512">
  <g>
    <g>
      <g>
        <path d="m421.9,110.1h-41.6c-26.7-42.8-73.3-68.9-124.3-68.9-51,0-97.6,26.1-124.3,68.9h-28.4v-33.2c0-11.3-9.1-20.4-20.4-20.4-11.3,0-20.4,9.1-20.4,20.4v38.2c-30,11.2-51.5,40.2-51.5,74.1v202.6c0,43.6 35.5,79.1 79.1,79.1h331.9c43.6,0 79.1-35.5 79.1-79.1v-202.6c-0.1-43.6-35.6-79.1-79.2-79.1zm38.3,281.6c0,21.1-17.1,38.2-38.2,38.2h-331.9c-21.1,0-38.2-17.1-38.2-38.2v-202.5c0-21.1 17.1-38.2 38.2-38.2h53.5c7.7,0 14.7-4.3 18.2-11.1 18.2-35.7 54.3-57.9 94.2-57.9 39.9,0 76,22.1 94.2,57.8 3.5,6.8 10.5,11.1 18.2,11.1h53.5c21.1,0 38.2,17.1 38.2,38.2v202.6z"/>
        <path d="m256,144.8c-69.7,0-126.5,56.7-126.5,126.5 0,69.7 56.7,126.5 126.5,126.5 69.7,0 126.5-56.7 126.5-126.5 0-69.7-56.8-126.5-126.5-126.5zm0,212.1c-47.2,0-85.6-38.4-85.6-85.6 0-47.2 38.4-85.6 85.6-85.6 47.2,0 85.6,38.4 85.6,85.6 0,47.2-38.4,85.6-85.6,85.6z"/>
      </g>
    </g>
  </g>
</svg>
