{
    "/js/app.js": "/js/app.js?id=995de2fd2a4cd2824716",
    "/css/app.css": "/css/app.css?id=291b269f72c7e6e7d9a2",
    "/css/dashboard_extend.css": "/css/dashboard_extend.css?id=f93e9db36e032875256b"
}
